ZOOL710 Data Science in R for Biologists - Reshaping data with dplyr
…
Take a second to look at this data. In this case the variables are religion (a proper vector), income bracket (in the column names), and the number of respts, which is the third variable, is presented inside the table. onden Converting this data to tidy format would give us

library(tidyverse)

relig_income %>%
  pivot_longer(-religion, names_to = "income", values_to = "respondents") 

# A tibble: 180 × 3
   religion income             respondents
   <chr>    <chr>                    <dbl>
 1 Agnostic <$10k                       27
 2 Agnostic $10-20k                     34
 3 Agnostic $20-30k                     60
 4 Agnostic $30-40k                     81
 5 Agnostic $40-50k                     76
 6 Agnostic $50-75k                    137
 7 Agnostic $75-100k                   122
 8 Agnostic $100-150k                  109
 9 Agnostic >150k                       84
10 Agnostic Don't know/refused          96
# … with 170 more rows
# ℹ Use `print(n = ...)` to see more rows
…
Long format data tends to have different attributes encoded as levels of a single variable, followed by another column that contains the values of the observation at those different levels.

The key problem with the tidyness of the original data is that the income variables are not in their own columns, but rather are embedded in the structure of the columns, making it hard to manipuate the income variables.

To fix this, you can use the pivot_longer() function to gather values spread across several columns into a single column, here with the column names gathered into an income column.

Mutate to convert character to factor

# Gather everything EXCEPT religion to tidy data
relig_income %>%
  pivot_longer(-religion, names_to = "income", values_to = "respondents") %>%
  mutate(religion = factor(religion), income = factor(income))

# A tibble: 180 × 3
   religion income             respondents
   <fct>    <fct>                    <dbl>
 1 Agnostic <$10k                       27
 2 Agnostic $10-20k                     34
 3 Agnostic $20-30k                     60
 4 Agnostic $30-40k                     81
 5 Agnostic $40-50k                     76
 6 Agnostic $50-75k                    137
 7 Agnostic $75-100k                   122
 8 Agnostic $100-150k                  109
 9 Agnostic >150k                       84
10 Agnostic Don't know/refused          96
# … with 170 more rows
# ℹ Use `print(n = ...)` to see more rows
…
Note

In the pivot_wider() call, you first specify the name of the column to use for the new column names (income in this example) and then specify the column to use for the cell values (total_respondents here).

Long format is often (but not always) the shape we need for tidy data. The important thing, however, is to think carefully about the shape you need for your analysis.

Example of pivot_longer()

Let’s try another dataset. This data contain an excerpt of the Gapminder data on life expectancy, GDP per capita, and population by country.

library(gapminder)
gapminder

# A tibble: 1,704 × 6
   country     continent  year lifeExp      pop gdpPercap
   <fct>       <fct>     <int>   <dbl>    <int>     <dbl>
 1 Afghanistan Asia       1952    28.8  8425333      779.
 2 Afghanistan Asia       1957    30.3  9240934      821.
 3 Afghanistan Asia       1962    32.0 10267083      853.
 4 Afghanistan Asia       1967    34.0 11537966      836.
 5 Afghanistan Asia       1972    36.1 13079460      740.
 6 Afghanistan Asia       1977    38.4 14880372      786.
 7 Afghanistan Asia       1982    39.9 12881816      978.
 8 Afghanistan Asia       1987    40.8 13867957      852.
 9 Afghanistan Asia       1992    41.7 16317921      649.
10 Afghanistan Asia       1997    41.8 22227415      635.
# … with 1,694 more rows
# ℹ Use `print(n = ...)` to see more rows
…
separate(): split contents of a column into two or more columns

First, we combine the first three columns into one new column using unite(). This function is similar to newvar <- paste(A,B,C, sep="_")

names(gapminder)

[1] "country"   "continent" "year"      "lifeExp"   "pop"       "gdpPercap"

gapminder %>% 
  unite(col="country_continent_year", 
        country:year, 
        sep="_")

# A tibble: 1,704 × 4
   country_continent_year lifeExp      pop gdpPercap
   <chr>                    <dbl>    <int>     <dbl>
 1 Afghanistan_Asia_1952     28.8  8425333      779.
 2 Afghanistan_Asia_1957     30.3  9240934      821.
 3 Afghanistan_Asia_1962     32.0 10267083      853.
 4 Afghanistan_Asia_1967     34.0 11537966      836.
 5 Afghanistan_Asia_1972     36.1 13079460      740.
 6 Afghanistan_Asia_1977     38.4 14880372      786.
 7 Afghanistan_Asia_1982     39.9 12881816      978.
 8 Afghanistan_Asia_1987     40.8 13867957      852.
 9 Afghanistan_Asia_1992     41.7 16317921      649.
10 Afghanistan_Asia_1997     41.8 22227415      635.
# … with 1,694 more rows
# ℹ Use `print(n = ...)` to see more rows

Next, we show how to separate the columns into three separate columns using separate() using the col, into and sep arguments. Note that this works by finding the delimiter, and relies on order of the information.

gapminder %>% 
  unite(col="country_continent_year", 
        country:year, 
        sep="_") %>% 
  separate(col="country_continent_year", 
           into=c("country", "continent", "year"), 
           sep="_")

# A tibble: 1,704 × 6
   country     continent year  lifeExp      pop gdpPercap
   <chr>       <chr>     <chr>   <dbl>    <int>     <dbl>
 1 Afghanistan Asia      1952     28.8  8425333      779.
 2 Afghanistan Asia      1957     30.3  9240934      821.
 3 Afghanistan Asia      1962     32.0 10267083      853.
 4 Afghanistan Asia      1967     34.0 11537966      836.
 5 Afghanistan Asia      1972     36.1 13079460      740.
 6 Afghanistan Asia      1977     38.4 14880372      786.
 7 Afghanistan Asia      1982     39.9 12881816      978.
 8 Afghanistan Asia      1987     40.8 13867957      852.
 9 Afghanistan Asia      1992     41.7 16317921      649.
10 Afghanistan Asia      1997     41.8 22227415      635.
# … with 1,694 more rows
# ℹ Use `print(n = ...)` to see more rows
…
tibble(x = c("a,b,c", "d,e", "f,g,i")) %>% 
  separate(x, c("one", "two", "three"))

Both unite() and separate() have a remove argument. What does it do? Why would you set it to FALSE?

Compare and contrast separate() and extract(). Why are there three variations of separation (by position, by separator, and with groups), but only one unite()?

Solution for gapminder example

gapminder %>% 
  pivot_longer(-c(country, continent, year), names_to = "metrics", values_to = "values")

# A tibble: 5,112 × 5
   country     continent  year metrics       values
   <fct>       <fct>     <int> <chr>          <dbl>
 1 Afghanistan Asia       1952 lifeExp         28.8
 2 Afghanistan Asia       1952 pop        8425333  
 3 Afghanistan Asia       1952 gdpPercap      779. 
 4 Afghanistan Asia       1957 lifeExp         30.3
 5 Afghanistan Asia       1957 pop        9240934  
 6 Afghanistan Asia       1957 gdpPercap      821. 
 7 Afghanistan Asia       1962 lifeExp         32.0
 8 Afghanistan Asia       1962 pop       10267083  
 9 Afghanistan Asia       1962 gdpPercap      853. 
10 Afghanistan Asia       1967 lifeExp         34.0
# … with 5,102 more rows
# ℹ Use `print(n = ...)` to see more rows
…
