ZOOL710 Data Science in R for Biologists - The ggtree-verse
…
'treedata' S4 object'.

...@ phylo:

Phylogenetic tree with 20 tips and 19 internal nodes.

Tip labels:
  t20, t10, t3, t7, t6, t18, ...

Rooted; includes branch lengths.

treedata <- as.treedata(tree)  
as_tibble(treedata)  # to tibble

# A tibble: 39 × 4
   parent  node branch.length label
    <int> <int>         <dbl> <chr>
 1     22     1       0.915   t20  
 2     26     2       0.532   t10  
 3     26     3       0.847   t3   
 4     25     4       0.118   t7   
 5     28     5       0.690   t6   
 6     28     6       0.725   t18  
 7     29     7       0.261   t14  
 8     31     8       0.00314 t9   
 9     31     9       0.0128  t4   
10     30    10       0.289   t12  
# … with 29 more rows
# ℹ Use `print(n = ...)` to see more rows
…
