ZOOL710 Data Science in R for Biologists - The ggtree-verse
…
'treedata' S4 object'.

...@ phylo:

Phylogenetic tree with 20 tips and 19 internal nodes.

Tip labels:
  t11, t9, t10, t2, t6, t5, ...

Rooted; includes branch lengths.

treedata <- as.treedata(tree)  
as_tibble(treedata)  # to tibble

# A tibble: 39 × 4
   parent  node branch.length label
    <int> <int>         <dbl> <chr>
 1     22     1        0.279  t11  
 2     22     2        0.127  t9   
 3     26     3        0.300  t10  
 4     27     4        0.435  t2   
 5     27     5        0.553  t6   
 6     28     6        0.764  t5   
 7     28     7        0.499  t1   
 8     30     8        0.0345 t7   
 9     30     9        0.787  t16  
10     33    10        0.871  t20  
# … with 29 more rows
# ℹ Use `print(n = ...)` to see more rows
…
