ZOOL710 Data Science in R for Biologists - Getting data in shape with dplyr
…
summarize() across those subsets

Example

We can create a separate data frame that splits the original data frame by homeworld.

worlds <- group_by(starwars, homeworld)

Compute summary statistics by planet (just showing mean and median here, almost any summary stat is available):

summarize(worlds, height = mean(height, na.rm = TRUE), 
          maxheight = max(height, na.rm = TRUE),
          mass = median(mass, na.rm = TRUE))

# A tibble: 49 × 4
   homeworld      height maxheight  mass
   <chr>           <dbl>     <dbl> <dbl>
 1 Alderaan         176.      176.  64  
 2 Aleen Minor       79        79   15  
 3 Bespin           175       175   79  
 4 Bestine IV       180       180  110  
 5 Cato Neimoidia   191       191   90  
 6 Cerea            198       198   82  
 7 Champala         196       196   NA  
 8 Chandrila        150       150   NA  
 9 Concord Dawn     183       183   79  
10 Corellia         175       175   78.5
# … with 39 more rows
…
first(x) %>% second %>% third

Example

Take the example that we just did in the last section.

That can be done with the following sequence:

starwars %>% 
  group_by(homeworld) %>% 
  summarize(height = mean(height, na.rm = TRUE), 
          maxheight = max(height, na.rm = TRUE),
          mass = median(mass, na.rm = TRUE))

# A tibble: 49 × 4
   homeworld      height maxheight  mass
   <chr>           <dbl>     <dbl> <dbl>
 1 Alderaan         176.      176.  64  
 2 Aleen Minor       79        79   15  
 3 Bespin           175       175   79  
 4 Bestine IV       180       180  110  
 5 Cato Neimoidia   191       191   90  
 6 Cerea            198       198   82  
 7 Champala         196       196   NA  
 8 Chandrila        150       150   NA  
 9 Concord Dawn     183       183   79  
10 Corellia         175       175   78.5
# … with 39 more rows
…
